{
    "RecordType": "SpamComplaint",
    "MessageStream": "outbound",
    "ID": 42,
    "Type": "SpamComplaint",
    "TypeCode": 512,
    "Name": "Spam complaint",
    "Tag": "Test",
    "MessageID": "883953f4-6105-42a2-a16a-77a8eac79483",
    "Metadata": {
        "a_key": "a_value",
        "b_key": "b_value"
    },
    "ServerID": 1234,
    "Description": "The subscriber explicitly marked this message as spam.",
    "Details": "Test spam complaint details",
    "Email": "john@example.com",
    "From": "sender@example.com",
    "BouncedAt": "2019-11-05T16:33:54.9070259Z",
    "DumpAvailable": true,
    "Inactive": true,
    "CanActivate": false,
    "Subject": "Test subject",
    "Content": "<Abuse report dump>"
}
